
./tezos-client --wait none originate sc rollup from bootstrap1 of kind arith of type string booting with  --burn-cap 9999999
Node is bootstrapped.
Estimated gas: 3110.429 units (will add 100 for safety)
Estimated storage: 6651 bytes added (will add 20 for safety)
Operation successfully injected in the node.
Operation hash is '[OPERATION_HASH]'
NOT waiting for the operation to be included.
Use command
  tezos-client wait for [OPERATION_HASH] to be included --confirmations 1 --branch [BLOCK_HASH]
and/or an external block explorer to make sure that it has been included.
This sequence of operations was run:
  Manager signed operations:
    From: [PUBLIC_KEY_HASH]
    Fee to the baker: ꜩ0.000674
    Expected counter: 1
    Gas limit: 3211
    Storage limit: 6671 bytes
    Balance updates:
      [PUBLIC_KEY_HASH] ... -ꜩ0.000674
      payload fees(the block proposer) ....... +ꜩ0.000674
    Smart contract rollup origination:
      Kind: arith
      Parameter type: string
      Boot sector: ''
      This smart contract rollup origination was successfully applied
      Consumed gas: 3110.429
      Storage size: 6651 bytes
      Address: [SC_ROLLUP_HASH]
      Genesis commitment hash: [SC_ROLLUP_COMMITMENT_HASH]
      Balance updates:
        [PUBLIC_KEY_HASH] ... -ꜩ1.66275
        storage fees ........................... +ꜩ1.66275


./tezos-client rpc get '/chains/main/blocks/head/context/sc_rollup/[SC_ROLLUP_HASH]/genesis_info'
{ "level": 2,
  "commitment_hash": "[SC_ROLLUP_COMMITMENT_HASH]" }

./tezos-sc-rollup-client-alpha rpc get /global/state_hash
"scs139rUcWoTB9MbNUEaWYn5RswKF7G2uENnRPq7Q9ByQRMahtB2NA"

./tezos-sc-rollup-client-alpha rpc get /global/total_ticks
"0"

./tezos-sc-rollup-client-alpha get state value for vars/value
"\000\000\000\007"

./tezos-sc-rollup-client-alpha rpc get /global/state_hash
"scs12qBnDaws8qffw6QDktoXqyVnQqsB7ZYta9AeumRrJu46uEXa8s"

./tezos-sc-rollup-client-alpha rpc get /global/total_ticks
"18"

./tezos-sc-rollup-client-alpha rpc get /global/state_hash
"scs12qBnDaws8qffw6QDktoXqyVnQqsB7ZYta9AeumRrJu46uEXa8s"

./tezos-sc-rollup-client-alpha rpc get /global/total_ticks
"18"

./tezos-sc-rollup-client-alpha get state value for vars/value
"\000\000\000\n"

./tezos-sc-rollup-client-alpha rpc get /global/state_hash
"scs132JyuMz3CnpXF3jbe2nJdJ4CbLnwGfUdpwRf9H14oKbLGf6gXY"

./tezos-sc-rollup-client-alpha rpc get /global/total_ticks
"35"

./tezos-sc-rollup-client-alpha rpc get /global/state_hash
"scs132JyuMz3CnpXF3jbe2nJdJ4CbLnwGfUdpwRf9H14oKbLGf6gXY"

./tezos-sc-rollup-client-alpha rpc get /global/total_ticks
"35"

./tezos-sc-rollup-client-alpha get state value for vars/value
"\000\000\000\r"

./tezos-sc-rollup-client-alpha rpc get /global/state_hash
"scs13LToVZYSTBF7YCWecXYN2PnbPa1YykGn9k4R5His735aYYqFZ9"

./tezos-sc-rollup-client-alpha rpc get /global/total_ticks
"53"

./tezos-sc-rollup-client-alpha rpc get /global/state_hash
"scs13LToVZYSTBF7YCWecXYN2PnbPa1YykGn9k4R5His735aYYqFZ9"

./tezos-sc-rollup-client-alpha rpc get /global/total_ticks
"53"

./tezos-sc-rollup-client-alpha get state value for vars/value
"\000\000\000\016"

./tezos-sc-rollup-client-alpha rpc get /global/state_hash
"scs13GPvXsed8QkXQ6BdyqaED7ySSNJyAN8J8c318DpKCUwngmemeX"

./tezos-sc-rollup-client-alpha rpc get /global/total_ticks
"71"

./tezos-sc-rollup-client-alpha rpc get /global/state_hash
"scs13GPvXsed8QkXQ6BdyqaED7ySSNJyAN8J8c318DpKCUwngmemeX"

./tezos-sc-rollup-client-alpha rpc get /global/total_ticks
"71"

./tezos-sc-rollup-client-alpha get state value for vars/value
"\000\000\000\019"

./tezos-sc-rollup-client-alpha rpc get /global/state_hash
"scs11fsCtryeBMasKPzudhJLnMPMHC1amn2HR88wCvnLcmrUxBcJg2"

./tezos-sc-rollup-client-alpha rpc get /global/total_ticks
"89"

./tezos-sc-rollup-client-alpha rpc get /global/state_hash
"scs11fsCtryeBMasKPzudhJLnMPMHC1amn2HR88wCvnLcmrUxBcJg2"

./tezos-sc-rollup-client-alpha rpc get /global/total_ticks
"89"

./tezos-sc-rollup-client-alpha get state value for vars/value
"\000\000\000\022"

./tezos-sc-rollup-client-alpha rpc get /global/state_hash
"scs13PsZc2DSGRhRrdZKHT9wpeLhLrYN5dkD9XZDPu3mYzPd3N8Piu"

./tezos-sc-rollup-client-alpha rpc get /global/total_ticks
"107"

./tezos-sc-rollup-client-alpha rpc get /global/state_hash
"scs13PsZc2DSGRhRrdZKHT9wpeLhLrYN5dkD9XZDPu3mYzPd3N8Piu"

./tezos-sc-rollup-client-alpha rpc get /global/total_ticks
"107"

./tezos-sc-rollup-client-alpha get state value for vars/value
"\000\000\000\025"

./tezos-sc-rollup-client-alpha rpc get /global/state_hash
"scs12CNZfYDyBvihucTXbD3TLou8WQn55Zk1DrRnLPLHw51Umiku8J"

./tezos-sc-rollup-client-alpha rpc get /global/total_ticks
"125"

./tezos-sc-rollup-client-alpha rpc get /global/state_hash
"scs12CNZfYDyBvihucTXbD3TLou8WQn55Zk1DrRnLPLHw51Umiku8J"

./tezos-sc-rollup-client-alpha rpc get /global/total_ticks
"125"

./tezos-sc-rollup-client-alpha get state value for vars/value
"\000\000\000\028"

./tezos-sc-rollup-client-alpha rpc get /global/state_hash
"scs137sVeLTakoSaACKmjZ77uisWL7LBFQmG57mDLfwZUp6ZqMtYgS"

./tezos-sc-rollup-client-alpha rpc get /global/total_ticks
"143"

./tezos-sc-rollup-client-alpha rpc get /global/state_hash
"scs137sVeLTakoSaACKmjZ77uisWL7LBFQmG57mDLfwZUp6ZqMtYgS"

./tezos-sc-rollup-client-alpha rpc get /global/total_ticks
"143"

./tezos-sc-rollup-client-alpha get state value for vars/value
"\000\000\000\031"

./tezos-sc-rollup-client-alpha rpc get /global/state_hash
"scs11d3KpHobBBVEH5j4xgC3myHPf8sffSvUZWLHVZH7ZcoqGh41A8"

./tezos-sc-rollup-client-alpha rpc get /global/total_ticks
"161"

./tezos-sc-rollup-client-alpha rpc get /global/state_hash
"scs11d3KpHobBBVEH5j4xgC3myHPf8sffSvUZWLHVZH7ZcoqGh41A8"

./tezos-sc-rollup-client-alpha rpc get /global/total_ticks
"161"

./tezos-sc-rollup-client-alpha get state value for vars/value
"\000\000\000\""

./tezos-sc-rollup-client-alpha rpc get /global/state_hash
"scs11ZmqpAH3wWYnySzqDFUPU8KL1nNSb8gBx4sBwkU9f11FWtAK22"

./tezos-sc-rollup-client-alpha rpc get /global/total_ticks
"180"
