
./tezos-client --wait none originate sc rollup from bootstrap1 of kind arith of type string booting with  --burn-cap 9999999
Node is bootstrapped.
Estimated gas: 3110.429 units (will add 100 for safety)
Estimated storage: 6651 bytes added (will add 20 for safety)
Operation successfully injected in the node.
Operation hash is '[OPERATION_HASH]'
NOT waiting for the operation to be included.
Use command
  tezos-client wait for [OPERATION_HASH] to be included --confirmations 1 --branch [BLOCK_HASH]
and/or an external block explorer to make sure that it has been included.
This sequence of operations was run:
  Manager signed operations:
    From: [PUBLIC_KEY_HASH]
    Fee to the baker: ꜩ0.000674
    Expected counter: 1
    Gas limit: 3211
    Storage limit: 6671 bytes
    Balance updates:
      [PUBLIC_KEY_HASH] ... -ꜩ0.000674
      payload fees(the block proposer) ....... +ꜩ0.000674
    Smart contract rollup origination:
      Kind: arith
      Parameter type: string
      Boot sector: ''
      This smart contract rollup origination was successfully applied
      Consumed gas: 3110.429
      Storage size: 6651 bytes
      Address: [SC_ROLLUP_HASH]
      Genesis commitment hash: [SC_ROLLUP_COMMITMENT_HASH]
      Balance updates:
        [PUBLIC_KEY_HASH] ... -ꜩ1.66275
        storage fees ........................... +ꜩ1.66275


./tezos-client rpc get '/chains/main/blocks/head/context/sc_rollup/[SC_ROLLUP_HASH]/genesis_info'
{ "level": 2,
  "commitment_hash": "[SC_ROLLUP_COMMITMENT_HASH]" }

./tezos-sc-rollup-client-alpha rpc get /global/total_ticks
"0"

./tezos-sc-rollup-client-alpha rpc get /global/status
"Halted"
